{
  "page": 500,
  "per_page": 12,
  "photos": [
    {
      "id": 5641967,
      "width": 3650,
      "height": 5472,
      "url": "https://www.pexels.com/photo/grayscale-photo-of-a-rocky-mountain-5641967/",
      "photographer": "Sami Anas",
      "photographer_url": "https://www.pexels.com/@samianas",
      "photographer_id": 3110837,
      "avg_color": "#343434",
      "src": {
        "original": "https://images.pexels.com/photos/5641967/pexels-photo-5641967.jpeg",
        "large2x": "https://images.pexels.com/photos/5641967/pexels-photo-5641967.jpeg?auto=compress&cs=tinysrgb&dpr=2&h=650&w=940",
        "large": "https://images.pexels.com/photos/5641967/pexels-photo-5641967.jpeg?auto=compress&cs=tinysrgb&h=650&w=940",
        "medium": "https://images.pexels.com/photos/5641967/pexels-photo-5641967.jpeg?auto=compress&cs=tinysrgb&h=350",
        "small": "https://images.pexels.com/photos/5641967/pexels-photo-5641967.jpeg?auto=compress&cs=tinysrgb&h=130",
        "portrait": "https://images.pexels.com/photos/5641967/pexels-photo-5641967.jpeg?auto=compress&cs=tinysrgb&fit=crop&h=1200&w=800",
        "landscape": "https://images.pexels.com/photos/5641967/pexels-photo-5641967.jpeg?auto=compress&cs=tinysrgb&fit=crop&h=627&w=1200",
        "tiny": "https://images.pexels.com/photos/5641967/pexels-photo-5641967.jpeg?auto=compress&cs=tinysrgb&dpr=1&fit=crop&h=200&w=280"
      }
    },
    {
      "id": 5641971,
      "width": 5472,
      "height": 3906,
      "url": "https://www.pexels.com/photo/boats-near-pier-on-lake-in-fog-5641971/",
      "photographer": "Sami Anas",
      "photographer_url": "https://www.pexels.com/@samianas",
      "photographer_id": 3110837,
      "avg_color": "#64636B",
      "src": {
        "original": "https://images.pexels.com/photos/5641971/pexels-photo-5641971.jpeg",
        "large2x": "https://images.pexels.com/photos/5641971/pexels-photo-5641971.jpeg?auto=compress&cs=tinysrgb&dpr=2&h=650&w=940",
        "large": "https://images.pexels.com/photos/5641971/pexels-photo-5641971.jpeg?auto=compress&cs=tinysrgb&h=650&w=940",
        "medium": "https://images.pexels.com/photos/5641971/pexels-photo-5641971.jpeg?auto=compress&cs=tinysrgb&h=350",
        "small": "https://images.pexels.com/photos/5641971/pexels-photo-5641971.jpeg?auto=compress&cs=tinysrgb&h=130",
        "portrait": "https://images.pexels.com/photos/5641971/pexels-photo-5641971.jpeg?auto=compress&cs=tinysrgb&fit=crop&h=1200&w=800",
        "landscape": "https://images.pexels.com/photos/5641971/pexels-photo-5641971.jpeg?auto=compress&cs=tinysrgb&fit=crop&h=627&w=1200",
        "tiny": "https://images.pexels.com/photos/5641971/pexels-photo-5641971.jpeg?auto=compress&cs=tinysrgb&dpr=1&fit=crop&h=200&w=280"
      }
    },
    {
      "id": 5642001,
      "width": 3624,
      "height": 5436,
      "url": "https://www.pexels.com/photo/serious-man-sitting-on-stairway-5642001/",
      "photographer": "Anna Shvets",
      "photographer_url": "https://www.pexels.com/@shvetsa",
      "photographer_id": 1984515,
      "avg_color": "#8F7A76",
      "src": {
        "original": "https://images.pexels.com/photos/5642001/pexels-photo-5642001.jpeg",
        "large2x": "https://images.pexels.com/photos/5642001/pexels-photo-5642001.jpeg?auto=compress&cs=tinysrgb&dpr=2&h=650&w=940",
        "large": "https://images.pexels.com/photos/5642001/pexels-photo-5642001.jpeg?auto=compress&cs=tinysrgb&h=650&w=940",
        "medium": "https://images.pexels.com/photos/5642001/pexels-photo-5642001.jpeg?auto=compress&cs=tinysrgb&h=350",
        "small": "https://images.pexels.com/photos/5642001/pexels-photo-5642001.jpeg?auto=compress&cs=tinysrgb&h=130",
        "portrait": "https://images.pexels.com/photos/5642001/pexels-photo-5642001.jpeg?auto=compress&cs=tinysrgb&fit=crop&h=1200&w=800",
        "landscape": "https://images.pexels.com/photos/5642001/pexels-photo-5642001.jpeg?auto=compress&cs=tinysrgb&fit=crop&h=627&w=1200",
        "tiny": "https://images.pexels.com/photos/5642001/pexels-photo-5642001.jpeg?auto=compress&cs=tinysrgb&dpr=1&fit=crop&h=200&w=280"
      }
    },
    {
      "id": 5641177,
      "width": 3648,
      "height": 5472,
      "url": "https://www.pexels.com/photo/happy-indian-woman-with-flower-in-hair-touching-face-5641177/",
      "photographer": "Azraq Al Rezoan",
      "photographer_url": "https://www.pexels.com/@azraq-al-rezoan-3449646",
      "photographer_id": 3449646,
      "avg_color": "#626262",
      "src": {
        "original": "https://images.pexels.com/photos/5641177/pexels-photo-5641177.jpeg",
        "large2x": "https://images.pexels.com/photos/5641177/pexels-photo-5641177.jpeg?auto=compress&cs=tinysrgb&dpr=2&h=650&w=940",
        "large": "https://images.pexels.com/photos/5641177/pexels-photo-5641177.jpeg?auto=compress&cs=tinysrgb&h=650&w=940",
        "medium": "https://images.pexels.com/photos/5641177/pexels-photo-5641177.jpeg?auto=compress&cs=tinysrgb&h=350",
        "small": "https://images.pexels.com/photos/5641177/pexels-photo-5641177.jpeg?auto=compress&cs=tinysrgb&h=130",
        "portrait": "https://images.pexels.com/photos/5641177/pexels-photo-5641177.jpeg?auto=compress&cs=tinysrgb&fit=crop&h=1200&w=800",
        "landscape": "https://images.pexels.com/photos/5641177/pexels-photo-5641177.jpeg?auto=compress&cs=tinysrgb&fit=crop&h=627&w=1200",
        "tiny": "https://images.pexels.com/photos/5641177/pexels-photo-5641177.jpeg?auto=compress&cs=tinysrgb&dpr=1&fit=crop&h=200&w=280"
      }
    },
    {
      "id": 5641350,
      "width": 5168,
      "height": 3448,
      "url": "https://www.pexels.com/photo/branches-of-frozen-tree-in-winter-forest-5641350/",
      "photographer": "Nico Becker",
      "photographer_url": "https://www.pexels.com/@nicobecker",
      "photographer_id": 2915177,
      "avg_color": "#4E707F",
      "src": {
        "original": "https://images.pexels.com/photos/5641350/pexels-photo-5641350.jpeg",
        "large2x": "https://images.pexels.com/photos/5641350/pexels-photo-5641350.jpeg?auto=compress&cs=tinysrgb&dpr=2&h=650&w=940",
        "large": "https://images.pexels.com/photos/5641350/pexels-photo-5641350.jpeg?auto=compress&cs=tinysrgb&h=650&w=940",
        "medium": "https://images.pexels.com/photos/5641350/pexels-photo-5641350.jpeg?auto=compress&cs=tinysrgb&h=350",
        "small": "https://images.pexels.com/photos/5641350/pexels-photo-5641350.jpeg?auto=compress&cs=tinysrgb&h=130",
        "portrait": "https://images.pexels.com/photos/5641350/pexels-photo-5641350.jpeg?auto=compress&cs=tinysrgb&fit=crop&h=1200&w=800",
        "landscape": "https://images.pexels.com/photos/5641350/pexels-photo-5641350.jpeg?auto=compress&cs=tinysrgb&fit=crop&h=627&w=1200",
        "tiny": "https://images.pexels.com/photos/5641350/pexels-photo-5641350.jpeg?auto=compress&cs=tinysrgb&dpr=1&fit=crop&h=200&w=280"
      }
    },
    {
      "id": 5640311,
      "width": 2105,
      "height": 3743,
      "url": "https://www.pexels.com/photo/modern-yacht-moored-in-water-5640311/",
      "photographer": "Drone Trotter",
      "photographer_url": "https://www.pexels.com/@drone-trotter-2765040",
      "photographer_id": 2765040,
      "avg_color": "#0A6C7F",
      "src": {
        "original": "https://images.pexels.com/photos/5640311/pexels-photo-5640311.jpeg",
        "large2x": "https://images.pexels.com/photos/5640311/pexels-photo-5640311.jpeg?auto=compress&cs=tinysrgb&dpr=2&h=650&w=940",
        "large": "https://images.pexels.com/photos/5640311/pexels-photo-5640311.jpeg?auto=compress&cs=tinysrgb&h=650&w=940",
        "medium": "https://images.pexels.com/photos/5640311/pexels-photo-5640311.jpeg?auto=compress&cs=tinysrgb&h=350",
        "small": "https://images.pexels.com/photos/5640311/pexels-photo-5640311.jpeg?auto=compress&cs=tinysrgb&h=130",
        "portrait": "https://images.pexels.com/photos/5640311/pexels-photo-5640311.jpeg?auto=compress&cs=tinysrgb&fit=crop&h=1200&w=800",
        "landscape": "https://images.pexels.com/photos/5640311/pexels-photo-5640311.jpeg?auto=compress&cs=tinysrgb&fit=crop&h=627&w=1200",
        "tiny": "https://images.pexels.com/photos/5640311/pexels-photo-5640311.jpeg?auto=compress&cs=tinysrgb&dpr=1&fit=crop&h=200&w=280"
      }
    },
    {
      "id": 5650041,
      "width": 6720,
      "height": 4480,
      "url": "https://www.pexels.com/photo/white-paper-bag-surrounded-by-red-balloons-5650041/",
      "photographer": "Karolina Grabowska",
      "photographer_url": "https://www.pexels.com/@karolina-grabowska",
      "photographer_id": 2332540,
      "avg_color": "#92504C",
      "src": {
        "original": "https://images.pexels.com/photos/5650041/pexels-photo-5650041.jpeg",
        "large2x": "https://images.pexels.com/photos/5650041/pexels-photo-5650041.jpeg?auto=compress&cs=tinysrgb&dpr=2&h=650&w=940",
        "large": "https://images.pexels.com/photos/5650041/pexels-photo-5650041.jpeg?auto=compress&cs=tinysrgb&h=650&w=940",
        "medium": "https://images.pexels.com/photos/5650041/pexels-photo-5650041.jpeg?auto=compress&cs=tinysrgb&h=350",
        "small": "https://images.pexels.com/photos/5650041/pexels-photo-5650041.jpeg?auto=compress&cs=tinysrgb&h=130",
        "portrait": "https://images.pexels.com/photos/5650041/pexels-photo-5650041.jpeg?auto=compress&cs=tinysrgb&fit=crop&h=1200&w=800",
        "landscape": "https://images.pexels.com/photos/5650041/pexels-photo-5650041.jpeg?auto=compress&cs=tinysrgb&fit=crop&h=627&w=1200",
        "tiny": "https://images.pexels.com/photos/5650041/pexels-photo-5650041.jpeg?auto=compress&cs=tinysrgb&dpr=1&fit=crop&h=200&w=280"
      }
    },
    {
      "id": 5639626,
      "width": 2333,
      "height": 3500,
      "url": "https://www.pexels.com/photo/persons-left-hand-on-water-5639626/",
      "photographer": "cottonbro",
      "photographer_url": "https://www.pexels.com/@cottonbro",
      "photographer_id": 1437723,
      "avg_color": "#121714",
      "src": {
        "original": "https://images.pexels.com/photos/5639626/pexels-photo-5639626.jpeg",
        "large2x": "https://images.pexels.com/photos/5639626/pexels-photo-5639626.jpeg?auto=compress&cs=tinysrgb&dpr=2&h=650&w=940",
        "large": "https://images.pexels.com/photos/5639626/pexels-photo-5639626.jpeg?auto=compress&cs=tinysrgb&h=650&w=940",
        "medium": "https://images.pexels.com/photos/5639626/pexels-photo-5639626.jpeg?auto=compress&cs=tinysrgb&h=350",
        "small": "https://images.pexels.com/photos/5639626/pexels-photo-5639626.jpeg?auto=compress&cs=tinysrgb&h=130",
        "portrait": "https://images.pexels.com/photos/5639626/pexels-photo-5639626.jpeg?auto=compress&cs=tinysrgb&fit=crop&h=1200&w=800",
        "landscape": "https://images.pexels.com/photos/5639626/pexels-photo-5639626.jpeg?auto=compress&cs=tinysrgb&fit=crop&h=627&w=1200",
        "tiny": "https://images.pexels.com/photos/5639626/pexels-photo-5639626.jpeg?auto=compress&cs=tinysrgb&dpr=1&fit=crop&h=200&w=280"
      }
    },
    {
      "id": 5639629,
      "width": 2333,
      "height": 3500,
      "url": "https://www.pexels.com/photo/woman-swimming-in-a-lake-5639629/",
      "photographer": "cottonbro",
      "photographer_url": "https://www.pexels.com/@cottonbro",
      "photographer_id": 1437723,
      "avg_color": "#343F3C",
      "src": {
        "original": "https://images.pexels.com/photos/5639629/pexels-photo-5639629.jpeg",
        "large2x": "https://images.pexels.com/photos/5639629/pexels-photo-5639629.jpeg?auto=compress&cs=tinysrgb&dpr=2&h=650&w=940",
        "large": "https://images.pexels.com/photos/5639629/pexels-photo-5639629.jpeg?auto=compress&cs=tinysrgb&h=650&w=940",
        "medium": "https://images.pexels.com/photos/5639629/pexels-photo-5639629.jpeg?auto=compress&cs=tinysrgb&h=350",
        "small": "https://images.pexels.com/photos/5639629/pexels-photo-5639629.jpeg?auto=compress&cs=tinysrgb&h=130",
        "portrait": "https://images.pexels.com/photos/5639629/pexels-photo-5639629.jpeg?auto=compress&cs=tinysrgb&fit=crop&h=1200&w=800",
        "landscape": "https://images.pexels.com/photos/5639629/pexels-photo-5639629.jpeg?auto=compress&cs=tinysrgb&fit=crop&h=627&w=1200",
        "tiny": "https://images.pexels.com/photos/5639629/pexels-photo-5639629.jpeg?auto=compress&cs=tinysrgb&dpr=1&fit=crop&h=200&w=280"
      }
    },
    {
      "id": 5639625,
      "width": 2333,
      "height": 3500,
      "url": "https://www.pexels.com/photo/woman-in-white-dress-posing-at-the-camera-5639625/",
      "photographer": "cottonbro",
      "photographer_url": "https://www.pexels.com/@cottonbro",
      "photographer_id": 1437723,
      "avg_color": "#3C3935",
      "src": {
        "original": "https://images.pexels.com/photos/5639625/pexels-photo-5639625.jpeg",
        "large2x": "https://images.pexels.com/photos/5639625/pexels-photo-5639625.jpeg?auto=compress&cs=tinysrgb&dpr=2&h=650&w=940",
        "large": "https://images.pexels.com/photos/5639625/pexels-photo-5639625.jpeg?auto=compress&cs=tinysrgb&h=650&w=940",
        "medium": "https://images.pexels.com/photos/5639625/pexels-photo-5639625.jpeg?auto=compress&cs=tinysrgb&h=350",
        "small": "https://images.pexels.com/photos/5639625/pexels-photo-5639625.jpeg?auto=compress&cs=tinysrgb&h=130",
        "portrait": "https://images.pexels.com/photos/5639625/pexels-photo-5639625.jpeg?auto=compress&cs=tinysrgb&fit=crop&h=1200&w=800",
        "landscape": "https://images.pexels.com/photos/5639625/pexels-photo-5639625.jpeg?auto=compress&cs=tinysrgb&fit=crop&h=627&w=1200",
        "tiny": "https://images.pexels.com/photos/5639625/pexels-photo-5639625.jpeg?auto=compress&cs=tinysrgb&dpr=1&fit=crop&h=200&w=280"
      }
    },
    {
      "id": 5638819,
      "width": 3200,
      "height": 4800,
      "url": "https://www.pexels.com/photo/people-sitting-on-chair-near-table-during-night-time-5638819/",
      "photographer": "Askar Abayev",
      "photographer_url": "https://www.pexels.com/@askar-abayev",
      "photographer_id": 3674690,
      "avg_color": "#282124",
      "src": {
        "original": "https://images.pexels.com/photos/5638819/pexels-photo-5638819.jpeg",
        "large2x": "https://images.pexels.com/photos/5638819/pexels-photo-5638819.jpeg?auto=compress&cs=tinysrgb&dpr=2&h=650&w=940",
        "large": "https://images.pexels.com/photos/5638819/pexels-photo-5638819.jpeg?auto=compress&cs=tinysrgb&h=650&w=940",
        "medium": "https://images.pexels.com/photos/5638819/pexels-photo-5638819.jpeg?auto=compress&cs=tinysrgb&h=350",
        "small": "https://images.pexels.com/photos/5638819/pexels-photo-5638819.jpeg?auto=compress&cs=tinysrgb&h=130",
        "portrait": "https://images.pexels.com/photos/5638819/pexels-photo-5638819.jpeg?auto=compress&cs=tinysrgb&fit=crop&h=1200&w=800",
        "landscape": "https://images.pexels.com/photos/5638819/pexels-photo-5638819.jpeg?auto=compress&cs=tinysrgb&fit=crop&h=627&w=1200",
        "tiny": "https://images.pexels.com/photos/5638819/pexels-photo-5638819.jpeg?auto=compress&cs=tinysrgb&dpr=1&fit=crop&h=200&w=280"
      }
    },
    {
      "id": 5637502,
      "width": 3840,
      "height": 5760,
      "url": "https://www.pexels.com/photo/old-man-holding-red-flowers-5637502/",
      "photographer": "RODNAE Productions",
      "photographer_url": "https://www.pexels.com/@rodnae-prod",
      "photographer_id": 3149039,
      "avg_color": "#9F9F9F",
      "src": {
        "original": "https://images.pexels.com/photos/5637502/pexels-photo-5637502.jpeg",
        "large2x": "https://images.pexels.com/photos/5637502/pexels-photo-5637502.jpeg?auto=compress&cs=tinysrgb&dpr=2&h=650&w=940",
        "large": "https://images.pexels.com/photos/5637502/pexels-photo-5637502.jpeg?auto=compress&cs=tinysrgb&h=650&w=940",
        "medium": "https://images.pexels.com/photos/5637502/pexels-photo-5637502.jpeg?auto=compress&cs=tinysrgb&h=350",
        "small": "https://images.pexels.com/photos/5637502/pexels-photo-5637502.jpeg?auto=compress&cs=tinysrgb&h=130",
        "portrait": "https://images.pexels.com/photos/5637502/pexels-photo-5637502.jpeg?auto=compress&cs=tinysrgb&fit=crop&h=1200&w=800",
        "landscape": "https://images.pexels.com/photos/5637502/pexels-photo-5637502.jpeg?auto=compress&cs=tinysrgb&fit=crop&h=627&w=1200",
        "tiny": "https://images.pexels.com/photos/5637502/pexels-photo-5637502.jpeg?auto=compress&cs=tinysrgb&dpr=1&fit=crop&h=200&w=280"
      }
    }
  ],
  "total_results": 8000,
  "next_page": "https://api.pexels.com/v1/curated/?page=501&per_page=12",
  "prev_page": "https://api.pexels.com/v1/curated/?page=499&per_page=12"
}